# Wavefront OBJ file automatically generated by Tiled2Unity

# Vertices (Count = 210)
v -608 -480 0
v -640 -480 0
v -640 -448 0
v -608 -448 0
v -672 -480 0
v -672 -448 0
v -704 -480 0
v -704 -448 0
v -736 -480 0
v -736 -448 0
v -864 -480 0
v -896 -480 0
v -896 -448 0
v -864 -448 0
v -928 -480 0
v -928 -448 0
v -960 -480 0
v -960 -448 0
v -992 -480 0
v -992 -448 0
v -608 -512 0
v -640 -512 0
v -672 -512 0
v -704 -512 0
v -736 -512 0
v -864 -512 0
v -896 -512 0
v -928 -512 0
v -960 -512 0
v -992 -512 0
v -320 -608 0
v -352 -608 0
v -352 -576 0
v -320 -576 0
v -384 -608 0
v -384 -576 0
v -416 -608 0
v -416 -576 0
v -448 -608 0
v -448 -576 0
v -480 -608 0
v -480 -576 0
v -512 -608 0
v -512 -576 0
v -544 -608 0
v -544 -576 0
v -1056 -608 0
v -1088 -608 0
v -1088 -576 0
v -1056 -576 0
v -1120 -608 0
v -1120 -576 0
v -1152 -608 0
v -1152 -576 0
v -1184 -608 0
v -1184 -576 0
v -1216 -608 0
v -1216 -576 0
v -1248 -608 0
v -1248 -576 0
v -1280 -608 0
v -1280 -576 0
v -320 -640 0
v -352 -640 0
v -384 -640 0
v -416 -640 0
v -448 -640 0
v -480 -640 0
v -512 -640 0
v -544 -640 0
v -1056 -640 0
v -1088 -640 0
v -1120 -640 0
v -1152 -640 0
v -1184 -640 0
v -1216 -640 0
v -1248 -640 0
v -1280 -640 0
v -640 -736 0
v -672 -736 0
v -672 -704 0
v -640 -704 0
v -704 -736 0
v -704 -704 0
v -736 -736 0
v -736 -704 0
v -768 -736 0
v -768 -704 0
v -800 -736 0
v -800 -704 0
v -832 -736 0
v -832 -704 0
v -864 -736 0
v -864 -704 0
v -896 -736 0
v -896 -704 0
v -928 -736 0
v -928 -704 0
v -960 -736 0
v -960 -704 0
v -640 -768 0
v -672 -768 0
v -704 -768 0
v -736 -768 0
v -768 -768 0
v -800 -768 0
v -832 -768 0
v -864 -768 0
v -896 -768 0
v -928 -768 0
v -960 -768 0
v -288 -864 0
v -320 -864 0
v -320 -832 0
v -288 -832 0
v -352 -864 0
v -352 -832 0
v -384 -864 0
v -384 -832 0
v -416 -864 0
v -416 -832 0
v -448 -864 0
v -448 -832 0
v -480 -864 0
v -480 -832 0
v -512 -864 0
v -512 -832 0
v -544 -864 0
v -544 -832 0
v -576 -864 0
v -576 -832 0
v -608 -864 0
v -608 -832 0
v -640 -864 0
v -640 -832 0
v -672 -864 0
v -672 -832 0
v -704 -864 0
v -704 -832 0
v -736 -864 0
v -736 -832 0
v -768 -864 0
v -768 -832 0
v -800 -864 0
v -800 -832 0
v -832 -864 0
v -832 -832 0
v -864 -864 0
v -864 -832 0
v -896 -864 0
v -896 -832 0
v -928 -864 0
v -928 -832 0
v -960 -864 0
v -960 -832 0
v -992 -864 0
v -992 -832 0
v -1024 -864 0
v -1024 -832 0
v -1056 -864 0
v -1056 -832 0
v -1088 -864 0
v -1088 -832 0
v -1120 -864 0
v -1120 -832 0
v -1152 -864 0
v -1152 -832 0
v -1184 -864 0
v -1184 -832 0
v -1216 -864 0
v -1216 -832 0
v -1248 -864 0
v -1248 -832 0
v -1280 -864 0
v -1280 -832 0
v -1312 -864 0
v -1312 -832 0
v -288 -896 0
v -320 -896 0
v -352 -896 0
v -384 -896 0
v -416 -896 0
v -448 -896 0
v -480 -896 0
v -512 -896 0
v -544 -896 0
v -576 -896 0
v -608 -896 0
v -640 -896 0
v -672 -896 0
v -704 -896 0
v -736 -896 0
v -768 -896 0
v -800 -896 0
v -832 -896 0
v -864 -896 0
v -896 -896 0
v -928 -896 0
v -960 -896 0
v -992 -896 0
v -1024 -896 0
v -1056 -896 0
v -1088 -896 0
v -1120 -896 0
v -1152 -896 0
v -1184 -896 0
v -1216 -896 0
v -1248 -896 0
v -1280 -896 0
v -1312 -896 0

# Texture Coorindates (Count = 8)
vt 0 0
vt 0.3333333 0
vt 0.3333333 1
vt 0 1
vt 0.6666667 0
vt 0.6666667 1
vt 1 0
vt 1 1

# Normal
vn 0 0 -1

# Groups (Count = 2)
g Tile_Layer_1_00+grass
f  1/1/1  2/2/1  3/3/1  4/4/1 
f  2/2/1  5/5/1  6/6/1  3/3/1 
f  5/2/1  7/5/1  8/6/1  6/3/1 
f  7/5/1  9/7/1  10/8/1  8/6/1 
f  11/1/1  12/2/1  13/3/1  14/4/1 
f  12/2/1  15/5/1  16/6/1  13/3/1 
f  15/2/1  17/5/1  18/6/1  16/3/1 
f  17/5/1  19/7/1  20/8/1  18/6/1 
f  31/1/1  32/2/1  33/3/1  34/4/1 
f  32/2/1  35/5/1  36/6/1  33/3/1 
f  35/2/1  37/5/1  38/6/1  36/3/1 
f  37/2/1  39/5/1  40/6/1  38/3/1 
f  39/2/1  41/5/1  42/6/1  40/3/1 
f  41/2/1  43/5/1  44/6/1  42/3/1 
f  43/5/1  45/7/1  46/8/1  44/6/1 
f  47/1/1  48/2/1  49/3/1  50/4/1 
f  48/2/1  51/5/1  52/6/1  49/3/1 
f  51/2/1  53/5/1  54/6/1  52/3/1 
f  53/2/1  55/5/1  56/6/1  54/3/1 
f  55/2/1  57/5/1  58/6/1  56/3/1 
f  57/2/1  59/5/1  60/6/1  58/3/1 
f  59/5/1  61/7/1  62/8/1  60/6/1 
f  79/1/1  80/2/1  81/3/1  82/4/1 
f  80/2/1  83/5/1  84/6/1  81/3/1 
f  83/2/1  85/5/1  86/6/1  84/3/1 
f  85/2/1  87/5/1  88/6/1  86/3/1 
f  87/2/1  89/5/1  90/6/1  88/3/1 
f  89/2/1  91/5/1  92/6/1  90/3/1 
f  91/2/1  93/5/1  94/6/1  92/3/1 
f  93/2/1  95/5/1  96/6/1  94/3/1 
f  95/2/1  97/5/1  98/6/1  96/3/1 
f  97/5/1  99/7/1  100/8/1  98/6/1 
f  112/1/1  113/2/1  114/3/1  115/4/1 
f  113/2/1  116/5/1  117/6/1  114/3/1 
f  116/2/1  118/5/1  119/6/1  117/3/1 
f  118/2/1  120/5/1  121/6/1  119/3/1 
f  120/2/1  122/5/1  123/6/1  121/3/1 
f  122/2/1  124/5/1  125/6/1  123/3/1 
f  124/2/1  126/5/1  127/6/1  125/3/1 
f  126/2/1  128/5/1  129/6/1  127/3/1 
f  128/2/1  130/5/1  131/6/1  129/3/1 
f  130/2/1  132/5/1  133/6/1  131/3/1 
f  132/2/1  134/5/1  135/6/1  133/3/1 
f  134/2/1  136/5/1  137/6/1  135/3/1 
f  136/2/1  138/5/1  139/6/1  137/3/1 
f  138/2/1  140/5/1  141/6/1  139/3/1 
f  140/2/1  142/5/1  143/6/1  141/3/1 
f  142/2/1  144/5/1  145/6/1  143/3/1 
f  144/2/1  146/5/1  147/6/1  145/3/1 
f  146/2/1  148/5/1  149/6/1  147/3/1 
f  148/2/1  150/5/1  151/6/1  149/3/1 
f  150/2/1  152/5/1  153/6/1  151/3/1 
f  152/2/1  154/5/1  155/6/1  153/3/1 
f  154/2/1  156/5/1  157/6/1  155/3/1 
f  156/2/1  158/5/1  159/6/1  157/3/1 
f  158/2/1  160/5/1  161/6/1  159/3/1 
f  160/2/1  162/5/1  163/6/1  161/3/1 
f  162/2/1  164/5/1  165/6/1  163/3/1 
f  164/2/1  166/5/1  167/6/1  165/3/1 
f  166/2/1  168/5/1  169/6/1  167/3/1 
f  168/2/1  170/5/1  171/6/1  169/3/1 
f  170/2/1  172/5/1  173/6/1  171/3/1 
f  172/2/1  174/5/1  175/6/1  173/3/1 
f  174/5/1  176/7/1  177/8/1  175/6/1 
g Tile_Layer_1_00+platformtiles
f  21/1/1  22/2/1  2/3/1  1/4/1 
f  22/2/1  23/5/1  5/6/1  2/3/1 
f  23/2/1  24/5/1  7/6/1  5/3/1 
f  24/5/1  25/7/1  9/8/1  7/6/1 
f  26/1/1  27/2/1  12/3/1  11/4/1 
f  27/2/1  28/5/1  15/6/1  12/3/1 
f  28/2/1  29/5/1  17/6/1  15/3/1 
f  29/5/1  30/7/1  19/8/1  17/6/1 
f  63/1/1  64/2/1  32/3/1  31/4/1 
f  64/2/1  65/5/1  35/6/1  32/3/1 
f  65/2/1  66/5/1  37/6/1  35/3/1 
f  66/2/1  67/5/1  39/6/1  37/3/1 
f  67/2/1  68/5/1  41/6/1  39/3/1 
f  68/2/1  69/5/1  43/6/1  41/3/1 
f  69/5/1  70/7/1  45/8/1  43/6/1 
f  71/1/1  72/2/1  48/3/1  47/4/1 
f  72/2/1  73/5/1  51/6/1  48/3/1 
f  73/2/1  74/5/1  53/6/1  51/3/1 
f  74/2/1  75/5/1  55/6/1  53/3/1 
f  75/2/1  76/5/1  57/6/1  55/3/1 
f  76/2/1  77/5/1  59/6/1  57/3/1 
f  77/5/1  78/7/1  61/8/1  59/6/1 
f  101/1/1  102/2/1  80/3/1  79/4/1 
f  102/2/1  103/5/1  83/6/1  80/3/1 
f  103/2/1  104/5/1  85/6/1  83/3/1 
f  104/2/1  105/5/1  87/6/1  85/3/1 
f  105/2/1  106/5/1  89/6/1  87/3/1 
f  106/2/1  107/5/1  91/6/1  89/3/1 
f  107/2/1  108/5/1  93/6/1  91/3/1 
f  108/2/1  109/5/1  95/6/1  93/3/1 
f  109/2/1  110/5/1  97/6/1  95/3/1 
f  110/5/1  111/7/1  99/8/1  97/6/1 
f  178/1/1  179/2/1  113/3/1  112/4/1 
f  179/2/1  180/5/1  116/6/1  113/3/1 
f  180/2/1  181/5/1  118/6/1  116/3/1 
f  181/2/1  182/5/1  120/6/1  118/3/1 
f  182/2/1  183/5/1  122/6/1  120/3/1 
f  183/2/1  184/5/1  124/6/1  122/3/1 
f  184/2/1  185/5/1  126/6/1  124/3/1 
f  185/2/1  186/5/1  128/6/1  126/3/1 
f  186/2/1  187/5/1  130/6/1  128/3/1 
f  187/2/1  188/5/1  132/6/1  130/3/1 
f  188/2/1  189/5/1  134/6/1  132/3/1 
f  189/2/1  190/5/1  136/6/1  134/3/1 
f  190/2/1  191/5/1  138/6/1  136/3/1 
f  191/2/1  192/5/1  140/6/1  138/3/1 
f  192/2/1  193/5/1  142/6/1  140/3/1 
f  193/2/1  194/5/1  144/6/1  142/3/1 
f  194/2/1  195/5/1  146/6/1  144/3/1 
f  195/2/1  196/5/1  148/6/1  146/3/1 
f  196/2/1  197/5/1  150/6/1  148/3/1 
f  197/2/1  198/5/1  152/6/1  150/3/1 
f  198/2/1  199/5/1  154/6/1  152/3/1 
f  199/2/1  200/5/1  156/6/1  154/3/1 
f  200/2/1  201/5/1  158/6/1  156/3/1 
f  201/2/1  202/5/1  160/6/1  158/3/1 
f  202/2/1  203/5/1  162/6/1  160/3/1 
f  203/2/1  204/5/1  164/6/1  162/3/1 
f  204/2/1  205/5/1  166/6/1  164/3/1 
f  205/2/1  206/5/1  168/6/1  166/3/1 
f  206/2/1  207/5/1  170/6/1  168/3/1 
f  207/2/1  208/5/1  172/6/1  170/3/1 
f  208/2/1  209/5/1  174/6/1  172/3/1 
f  209/5/1  210/7/1  176/8/1  174/6/1 
